-- Merging decision tree log ---
manifest
ADDED from C:\Users\Dennis\AndroidStudioProjects\MortyHero\shared\src\androidMain\AndroidManifest.xml:2:1-109
INJECTED from C:\Users\Dennis\AndroidStudioProjects\MortyHero\shared\src\androidMain\AndroidManifest.xml:2:1-109
INJECTED from C:\Users\Dennis\AndroidStudioProjects\MortyHero\shared\src\androidMain\AndroidManifest.xml:2:1-109
	package
		ADDED from C:\Users\Dennis\AndroidStudioProjects\MortyHero\shared\src\androidMain\AndroidManifest.xml:2:70-107
		INJECTED from C:\Users\Dennis\AndroidStudioProjects\MortyHero\shared\src\androidMain\AndroidManifest.xml
		INJECTED from C:\Users\Dennis\AndroidStudioProjects\MortyHero\shared\src\androidMain\AndroidManifest.xml
	xmlns:android
		ADDED from C:\Users\Dennis\AndroidStudioProjects\MortyHero\shared\src\androidMain\AndroidManifest.xml:2:11-69
uses-sdk
INJECTED from C:\Users\Dennis\AndroidStudioProjects\MortyHero\shared\src\androidMain\AndroidManifest.xml reason: use-sdk injection requested
INJECTED from C:\Users\Dennis\AndroidStudioProjects\MortyHero\shared\src\androidMain\AndroidManifest.xml
INJECTED from C:\Users\Dennis\AndroidStudioProjects\MortyHero\shared\src\androidMain\AndroidManifest.xml
INJECTED from C:\Users\Dennis\AndroidStudioProjects\MortyHero\shared\src\androidMain\AndroidManifest.xml
INJECTED from C:\Users\Dennis\AndroidStudioProjects\MortyHero\shared\src\androidMain\AndroidManifest.xml
	android:targetSdkVersion
		INJECTED from C:\Users\Dennis\AndroidStudioProjects\MortyHero\shared\src\androidMain\AndroidManifest.xml
		ADDED from C:\Users\Dennis\AndroidStudioProjects\MortyHero\shared\src\androidMain\AndroidManifest.xml
		INJECTED from C:\Users\Dennis\AndroidStudioProjects\MortyHero\shared\src\androidMain\AndroidManifest.xml
	android:minSdkVersion
		INJECTED from C:\Users\Dennis\AndroidStudioProjects\MortyHero\shared\src\androidMain\AndroidManifest.xml
		ADDED from C:\Users\Dennis\AndroidStudioProjects\MortyHero\shared\src\androidMain\AndroidManifest.xml
		INJECTED from C:\Users\Dennis\AndroidStudioProjects\MortyHero\shared\src\androidMain\AndroidManifest.xml
